<?xml version="1.0" encoding="UTF-8" standalone="no"?>
<!-- Created with Inkscape (http://www.inkscape.org/) -->

<svg
   xmlns:dc="http://purl.org/dc/elements/1.1/"
   xmlns:cc="http://creativecommons.org/ns#"
   xmlns:rdf="http://www.w3.org/1999/02/22-rdf-syntax-ns#"
   xmlns:svg="http://www.w3.org/2000/svg"
   xmlns="http://www.w3.org/2000/svg"
   xmlns:sodipodi="http://sodipodi.sourceforge.net/DTD/sodipodi-0.dtd"
   xmlns:inkscape="http://www.inkscape.org/namespaces/inkscape"
   width="744.09448819"
   height="1052.3622047"
   id="svg2"
   version="1.1"
   inkscape:version="0.91 r13725"
   sodipodi:docname="figures.svg">
  <sodipodi:namedview
     id="base"
     pagecolor="#ffffff"
     bordercolor="#666666"
     borderopacity="1.0"
     inkscape:pageopacity="0.0"
     inkscape:pageshadow="2"
     inkscape:zoom="1"
     inkscape:cx="421.17083"
     inkscape:cy="826.4691"
     inkscape:document-units="px"
     inkscape:current-layer="layer1"
     showgrid="false"
     inkscape:window-width="1073"
     inkscape:window-height="856"
     inkscape:window-x="180"
     inkscape:window-y="24"
     inkscape:window-maximized="0" />
  <defs
     id="defs4">
    <marker
       style="overflow:visible;"
       id="Arrow1Mend"
       refX="0.0"
       refY="0.0"
       orient="auto"
       inkscape:stockid="Arrow1Mend">
      <path
         transform="scale(0.4) rotate(180) translate(10,0)"
         style="fill-rule:evenodd;stroke:#000000;stroke-width:1.0pt;"
         d="M 0.0,0.0 L 5.0,-5.0 L -12.5,0.0 L 5.0,5.0 L 0.0,0.0 z "
         id="path3792" />
    </marker>
    <marker
       style="overflow:visible"
       id="Arrow1Mend-6"
       refX="0"
       refY="0"
       orient="auto"
       inkscape:stockid="Arrow1Mend">
      <path
         transform="matrix(-0.4,0,0,-0.4,-4,0)"
         style="fill-rule:evenodd;stroke:#000000;stroke-width:1pt"
         d="M 0,0 5,-5 -12.5,0 5,5 0,0 z"
         id="path3792-7"
         inkscape:connector-curvature="0" />
    </marker>
    <marker
       style="overflow:visible"
       id="Arrow1Mend-2"
       refX="0"
       refY="0"
       orient="auto"
       inkscape:stockid="Arrow1Mend">
      <path
         transform="matrix(-0.4,0,0,-0.4,-4,0)"
         style="fill-rule:evenodd;stroke:#000000;stroke-width:1pt"
         d="M 0,0 5,-5 -12.5,0 5,5 0,0 z"
         id="path3792-3"
         inkscape:connector-curvature="0" />
    </marker>
    <marker
       style="overflow:visible"
       id="Arrow1Mend-22"
       refX="0"
       refY="0"
       orient="auto"
       inkscape:stockid="Arrow1Mend">
      <path
         transform="matrix(-0.4,0,0,-0.4,-4,0)"
         style="fill-rule:evenodd;stroke:#000000;stroke-width:1pt"
         d="M 0,0 5,-5 -12.5,0 5,5 0,0 z"
         id="path3792-8"
         inkscape:connector-curvature="0" />
    </marker>
    <marker
       style="overflow:visible"
       id="Arrow1Mend-61"
       refX="0"
       refY="0"
       orient="auto"
       inkscape:stockid="Arrow1Mend">
      <path
         transform="matrix(-0.4,0,0,-0.4,-4,0)"
         style="fill-rule:evenodd;stroke:#000000;stroke-width:1pt"
         d="M 0,0 5,-5 -12.5,0 5,5 0,0 z"
         id="path3792-2"
         inkscape:connector-curvature="0" />
    </marker>
    <marker
       style="overflow:visible"
       id="Arrow1Mend-7"
       refX="0"
       refY="0"
       orient="auto"
       inkscape:stockid="Arrow1Mend">
      <path
         transform="matrix(-0.4,0,0,-0.4,-4,0)"
         style="fill-rule:evenodd;stroke:#000000;stroke-width:1pt"
         d="M 0,0 5,-5 -12.5,0 5,5 0,0 z"
         id="path3792-84"
         inkscape:connector-curvature="0" />
    </marker>
    <marker
       style="overflow:visible"
       id="Arrow1Mend-61-9"
       refX="0"
       refY="0"
       orient="auto"
       inkscape:stockid="Arrow1Mend">
      <path
         transform="matrix(-0.4,0,0,-0.4,-4,0)"
         style="fill-rule:evenodd;stroke:#000000;stroke-width:1pt"
         d="M 0,0 5,-5 -12.5,0 5,5 0,0 z"
         id="path3792-2-3"
         inkscape:connector-curvature="0" />
    </marker>
    <marker
       style="overflow:visible"
       id="Arrow1Mend-4"
       refX="0"
       refY="0"
       orient="auto"
       inkscape:stockid="Arrow1Mend">
      <path
         inkscape:connector-curvature="0"
         transform="matrix(-0.4,0,0,-0.4,-4,0)"
         style="fill-rule:evenodd;stroke:#000000;stroke-width:1pt"
         d="M 0,0 5,-5 -12.5,0 5,5 0,0 Z"
         id="path3792-1" />
    </marker>
  </defs>
  <metadata
     id="metadata7">
    <rdf:RDF>
      <cc:Work
         rdf:about="">
        <dc:format>image/svg+xml</dc:format>
        <dc:type
           rdf:resource="http://purl.org/dc/dcmitype/StillImage" />
        <dc:title />
      </cc:Work>
    </rdf:RDF>
  </metadata>
  <g
     id="layer1"
     inkscape:groupmode="layer"
     inkscape:label="Layer 1"
     style="display:inline">
    <g
       id="g5763">
      <g
         id="g4889"
         transform="translate(15,-99)">
        <path
           transform="matrix(1.5,0,0,1.5,-86.90625,184.06891)"
           sodipodi:open="true"
           sodipodi:end="6.1078037"
           sodipodi:start="6.130137"
           d="m 173.95324,38.752377 a 4,4 0 0 1 -3.32137,4.559583 4,4 0 0 1 -4.57806,-3.295866 4,4 0 0 1 3.27026,-4.596387 4,4 0 0 1 4.61457,3.24454"
           sodipodi:ry="4"
           sodipodi:rx="4"
           sodipodi:cy="39.362183"
           sodipodi:cx="170"
           id="path3775"
           style="color:#000000;display:inline;overflow:visible;visibility:visible;opacity:0.80894309;fill:#000000;fill-opacity:1;stroke:#000000;stroke-width:0.83333331;stroke-linecap:square;stroke-linejoin:bevel;stroke-miterlimit:4;stroke-dasharray:none;stroke-dashoffset:0;stroke-opacity:1;marker:none;enable-background:accumulate"
           sodipodi:type="arc" />
        <path
           sodipodi:nodetypes="cc"
           inkscape:connector-curvature="0"
           id="path3777"
           d="m 168.09375,243.11218 56.5,0"
           style="fill:none;stroke:#000000;stroke-width:1px;stroke-linecap:butt;stroke-linejoin:miter;stroke-opacity:1;marker-end:url(#Arrow1Mend)" />
      </g>
      <path
         style="fill:none;stroke:#000000;stroke-width:1px;stroke-linecap:butt;stroke-linejoin:miter;stroke-opacity:1;marker-end:url(#Arrow1Mend)"
         d="m 277.43792,142.36215 56.5,0"
         id="path3777-3"
         inkscape:connector-curvature="0"
         sodipodi:nodetypes="cc" />
      <path
         style="fill:none;stroke:#000000;stroke-width:1px;stroke-linecap:butt;stroke-linejoin:miter;stroke-opacity:1;marker-end:none"
         d="m 372.43792,142.36215 50.84314,0"
         id="path3777-94"
         inkscape:connector-curvature="0"
         sodipodi:nodetypes="cc" />
      <g
         transform="translate(53,67)"
         id="g6157">
        <path
           inkscape:connector-curvature="0"
           id="path5279"
           d="m 330,75.362183 70,0"
           style="fill:none;stroke:#000000;stroke-width:1;stroke-linecap:butt;stroke-linejoin:miter;stroke-miterlimit:4;stroke-dasharray:4, 4;stroke-dashoffset:0;stroke-opacity:1;marker-end:url(#Arrow1Mend-61)" />
      </g>
      <path
         style="fill:none;stroke:#000000;stroke-width:1px;stroke-linecap:butt;stroke-linejoin:miter;stroke-opacity:1;marker-end:url(#Arrow1Mend-7)"
         d="m 625.98276,142.36218 16.01724,0 c 28,0 34,-7 33,-24 0,-20.999997 -11,-26.999997 -36,-25.999997 L 334.34315,92.655076 C 313.92893,92.06929 302.21201,91.705329 301.58579,109.26168"
         id="path5693"
         inkscape:connector-curvature="0"
         sodipodi:nodetypes="cccccc" />
      <g
         transform="translate(178.35711,68.071321)"
         id="g6157-7">
        <path
           inkscape:connector-curvature="0"
           id="path5279-4"
           d="m 330,75.362183 70,0"
           style="fill:none;stroke:#000000;stroke-width:1;stroke-linecap:butt;stroke-linejoin:miter;stroke-miterlimit:4;stroke-dasharray:4, 4;stroke-dashoffset:0;stroke-opacity:1;marker-end:url(#Arrow1Mend-61)" />
      </g>
      <path
         style="fill:none;stroke:#000000;stroke-width:1px;stroke-linecap:butt;stroke-linejoin:miter;stroke-opacity:1;marker-end:none"
         d="m 497.46129,143.4335 50.84314,0"
         id="path3777-94-5"
         inkscape:connector-curvature="0"
         sodipodi:nodetypes="cc" />
      <g
         transform="translate(53,67)"
         id="g5118">
        <rect
           y="51.112183"
           x="192.25"
           height="130.5"
           width="61.5"
           id="rect2985-2"
           style="color:#000000;display:inline;overflow:visible;visibility:visible;opacity:0.80894309;fill:none;stroke:#000000;stroke-width:1.25;stroke-linecap:square;stroke-linejoin:bevel;stroke-miterlimit:4;stroke-dasharray:none;stroke-dashoffset:0;stroke-opacity:1;marker:none;enable-background:accumulate" />
        <path
           inkscape:connector-curvature="0"
           id="path2987-9"
           d="m 192.25,96.11218 60,0"
           style="fill:none;stroke:#000000;stroke-width:1px;stroke-linecap:butt;stroke-linejoin:miter;stroke-opacity:1" />
        <path
           inkscape:connector-curvature="0"
           id="path2987-3-1"
           d="m 192.25,139.61218 60,0"
           style="fill:none;stroke:#000000;stroke-width:1px;stroke-linecap:butt;stroke-linejoin:miter;stroke-opacity:1" />
        <path
           transform="matrix(1.5,0,0,1.5,-30.562076,16.31888)"
           sodipodi:open="true"
           sodipodi:end="6.1078037"
           sodipodi:start="6.130137"
           d="m 173.95324,38.752377 a 4,4 0 0 1 -3.32137,4.559583 4,4 0 0 1 -4.57806,-3.295866 4,4 0 0 1 3.27026,-4.596387 4,4 0 0 1 4.61457,3.24454"
           sodipodi:ry="4"
           sodipodi:rx="4"
           sodipodi:cy="39.362183"
           sodipodi:cx="170"
           id="path3775-7"
           style="color:#000000;display:inline;overflow:visible;visibility:visible;opacity:0.80894309;fill:#000000;fill-opacity:1;stroke:#000000;stroke-width:0.83333331;stroke-linecap:square;stroke-linejoin:bevel;stroke-miterlimit:4;stroke-dasharray:none;stroke-dashoffset:0;stroke-opacity:1;marker:none;enable-background:accumulate"
           sodipodi:type="arc" />
        <g
           id="g3494"
           transform="matrix(0.7,0,0,0.7,-8.6314992,-82.25967)">
          <g
             word-spacing="normal"
             letter-spacing="normal"
             font-size-adjust="none"
             font-stretch="normal"
             font-weight="normal"
             font-variant="normal"
             font-style="normal"
             stroke-miterlimit="10.433"
             xml:space="preserve"
             transform="matrix(1.0629921,0,0,-1.0629921,-186.02362,789.27165)"
             id="g3496"
             style="font-style:normal;font-variant:normal;font-weight:normal;font-stretch:normal;letter-spacing:normal;word-spacing:normal;text-anchor:start;fill:none;stroke:#000000;stroke-width:1.42857146;stroke-linecap:butt;stroke-linejoin:miter;stroke-miterlimit:10.43299961;stroke-dasharray:none;stroke-dashoffset:0;stroke-opacity:1"><path
               id="path3498"
               d="m 466.77,414.34 0.06,0.06 0.07,0.06 0.08,0.06 0.07,0.07 0.09,0.08 0.09,0.07 0.09,0.08 0.09,0.08 0.1,0.08 0.1,0.08 0.21,0.17 0.21,0.18 0.22,0.18 0.21,0.17 0.22,0.18 0.2,0.17 0.1,0.08 0.1,0.08 0.1,0.08 0.09,0.07 0.08,0.08 0.09,0.07 0.08,0.06 0.07,0.07 0.07,0.05 0.06,0.06 c 2.47,2.28 4.83,4.47 4.83,8.09 0,4.75 -4,7.83 -8.98,7.83 -4.78,0 -7.94,-3.64 -7.94,-7.19 0,-1.95 1.56,-2.23 2.12,-2.23 0.83,0 2.07,0.59 2.07,2.11 0,2.08 -1.99,2.08 -2.47,2.08 1.15,2.92 3.83,3.9 5.78,3.9 3.72,0 5.62,-3.14 5.62,-6.5 0,-4.14 -2.9,-7.17 -7.61,-12 l -5.03,-5.19 c -0.48,-0.43 -0.48,-0.51 -0.48,-1.51 l 15.76,0 1.16,7.14 -1.23,0 c -0.13,-0.8 -0.46,-2.8 -0.93,-3.55 -0.23,-0.33 -3.26,-0.33 -3.9,-0.33 l -7.11,0 z"
               inkscape:connector-curvature="0"
               style="fill:#000000;stroke-width:0" /><path
               id="path3500"
               d="m 496.62,422.12 -0.08,-0.02 -0.08,-0.02 -0.07,-0.03 -0.08,-0.03 -0.07,-0.02 -0.07,-0.03 -0.07,-0.03 -0.06,-0.04 -0.06,-0.03 -0.06,-0.03 -0.06,-0.04 -0.06,-0.03 -0.05,-0.04 -0.05,-0.04 -0.1,-0.08 -0.09,-0.08 -0.09,-0.08 -0.08,-0.08 -0.07,-0.09 -0.06,-0.09 -0.06,-0.08 -0.05,-0.09 -0.05,-0.09 -0.04,-0.08 -0.04,-0.09 -0.03,-0.08 -0.03,-0.08 -0.02,-0.08 -0.03,-0.08 -0.01,-0.07 -0.02,-0.07 -0.01,-0.06 -0.01,-0.06 -0.01,-0.05 0,-0.05 0,-0.04 -0.01,-0.03 0,-0.03 0,-0.02 c 0,-0.87 0.67,-1.48 1.55,-1.48 0.87,0 2.23,0.69 2.23,2.39 0,2.28 -2.51,2.92 -3.98,2.92 -1.88,0 -3.39,-1.31 -4.31,-2.87 -0.88,2.11 -2.96,2.87 -4.6,2.87 -4.34,0 -6.76,-4.98 -6.76,-6.11 0,-0.36 0.26,-0.51 0.59,-0.51 0.47,0 0.56,0.2 0.67,0.67 0.93,2.92 3.32,4.83 5.39,4.83 1.55,0 2.32,-1.11 2.32,-2.55 0,-0.8 -0.49,-2.64 -0.8,-3.91 -0.28,-1.15 -1.16,-4.7 -1.36,-5.46 -0.56,-2.16 -2,-3.83 -3.78,-3.83 -0.17,0 -1.2,0 -2.05,0.56 1.85,0.44 1.85,2.11 1.85,2.16 0,0.9 -0.72,1.47 -1.6,1.47 -1.08,0 -2.23,-0.93 -2.23,-2.44 0,-1.83 1.95,-2.88 3.98,-2.88 2.11,0 3.6,1.61 4.31,2.88 0.88,-1.96 2.71,-2.88 4.63,-2.88 4.34,0 6.73,5 6.73,6.11 0,0.41 -0.31,0.52 -0.59,0.52 -0.48,0 -0.56,-0.28 -0.67,-0.67 -0.81,-2.68 -3.08,-4.83 -5.39,-4.83 -1.31,0 -2.28,0.87 -2.28,2.54 0,0.8 0.25,1.72 0.79,3.96 0.28,1.2 1.16,4.7 1.36,5.47 0.57,2.07 1.96,3.78 3.75,3.78 0.21,0 1.24,0 2.08,-0.55 z"
               inkscape:connector-curvature="0"
               style="fill:#000000;stroke-width:0" /><path
               id="path3502"
               d="m 511.22,419.6 0,0.04 0,0.04 0,0.04 0,0.04 0,0.03 0,0.04 0,0.03 0,0.04 -0.01,0.03 0,0.03 0,0.03 0,0.02 -0.01,0.03 0,0.03 -0.01,0.02 0,0.03 -0.01,0.02 0,0.02 -0.01,0.02 0,0.02 -0.01,0.02 -0.01,0.02 -0.01,0.03 -0.02,0.04 -0.02,0.02 -0.03,0.03 -0.02,0.02 -0.03,0.02 -0.03,0.02 -0.03,0.01 -0.04,0.02 -0.04,0.01 -0.04,0 -0.05,0.01 -0.05,0.01 -0.05,0 -0.06,0.01 -0.06,0 -0.03,0 -0.03,0 -0.04,0 -0.03,0 -0.04,0 -0.03,0 -0.04,0 -0.04,0 -0.04,0 -0.04,0 c -1.97,-1.9 -5.02,-1.9 -6.08,-1.9 l 0,-1.16 c 0.76,0 2.73,0 4.53,0.83 l 0,-15.05 c 0,-0.98 0,-1.37 -3.08,-1.37 l -1.28,0 0,-1.16 c 1.64,0.12 3.97,0.12 5.64,0.12 1.67,0 3.99,0 5.63,-0.12 l 0,1.16 -1.29,0 c -3.06,0 -3.06,0.39 -3.06,1.37 z"
               inkscape:connector-curvature="0"
               style="fill:#000000;stroke-width:0" /></g>        </g>
        <g
           id="g4412"
           transform="matrix(0.7,0,0,0.7,-7.895925,-121.9849)">
          <g
             word-spacing="normal"
             letter-spacing="normal"
             font-size-adjust="none"
             font-stretch="normal"
             font-weight="normal"
             font-variant="normal"
             font-style="normal"
             stroke-miterlimit="10.433"
             xml:space="preserve"
             transform="matrix(1.0629921,0,0,-1.0629921,-186.02362,789.27165)"
             id="g4414"
             style="font-style:normal;font-variant:normal;font-weight:normal;font-stretch:normal;letter-spacing:normal;word-spacing:normal;text-anchor:start;fill:none;stroke:#000000;stroke-width:1.42857146;stroke-linecap:butt;stroke-linejoin:miter;stroke-miterlimit:10.43299961;stroke-dasharray:none;stroke-dashoffset:0;stroke-opacity:1"><path
               id="path4416"
               d="m 483.39,415.25 0.07,0 0.06,0 0.12,0 0.13,0 0.07,0.01 0.06,0 0.07,0.01 0.06,0 0.06,0.01 0.07,0.01 0.06,0.02 0.06,0.01 0.06,0.02 0.05,0.02 0.06,0.02 0.05,0.03 0.05,0.03 0.05,0.03 0.04,0.04 0.05,0.04 0.04,0.04 0.02,0.02 0.01,0.02 0.02,0.03 0.02,0.03 0.01,0.02 0.02,0.03 0.01,0.03 0.01,0.03 0.01,0.03 0.01,0.03 0.01,0.04 0.01,0.03 0,0.04 0.01,0.04 0,0.03 0.01,0.04 0,0.05 0,0.04 c 0,0.92 -0.87,0.92 -1.52,0.92 l -22.84,0 c -0.64,0 -1.51,0 -1.51,-0.92 0,-0.92 0.87,-0.92 1.51,-0.92 z"
               inkscape:connector-curvature="0"
               style="fill:#000000;stroke-width:0" /><path
               id="path4418"
               d="m 500.93,431.61 0,0.04 0,0.05 0,0.05 0,0.05 0,0.04 0,0.04 0,0.04 -0.01,0.04 0,0.04 0,0.04 0,0.03 -0.01,0.04 0,0.03 0,0.04 -0.01,0.03 0,0.03 -0.01,0.02 0,0.03 -0.01,0.03 0,0.02 -0.02,0.05 -0.02,0.05 -0.02,0.03 -0.02,0.04 -0.02,0.03 -0.03,0.03 -0.03,0.03 -0.03,0.02 -0.04,0.02 -0.04,0.02 -0.05,0.01 -0.05,0.02 -0.05,0.01 -0.06,0.01 -0.06,0 -0.03,0.01 -0.04,0 -0.03,0 -0.04,0 -0.03,0 -0.04,0.01 -0.04,0 -0.04,0 -0.05,0 -0.04,0 -0.04,0 -0.05,0 -0.05,0 -0.05,0 c -1.64,-1.59 -3.75,-2.56 -7.54,-2.56 l 0,-1.31 c 1.07,0 3.23,0 5.54,1.07 l 0,-20.47 c 0,-1.46 -0.12,-1.95 -3.9,-1.95 l -1.41,0 0,-1.31 c 1.64,0.12 5.08,0.12 6.86,0.12 1.8,0 5.27,0 6.91,-0.12 l 0,1.31 -1.39,0 c -3.8,0 -3.91,0.49 -3.91,1.95 z"
               inkscape:connector-curvature="0"
               style="fill:#000000;stroke-width:0" /></g>        </g>
      </g>
      <g
         transform="translate(53,67)"
         id="g5133">
        <g
           id="g5009"
           transform="translate(-254,-60.5)">
          <rect
             style="color:#000000;display:inline;overflow:visible;visibility:visible;opacity:0.80894309;fill:none;stroke:#000000;stroke-width:1.25;stroke-linecap:square;stroke-linejoin:bevel;stroke-miterlimit:4;stroke-dasharray:none;stroke-dashoffset:0;stroke-opacity:1;marker:none;enable-background:accumulate"
             id="rect2985"
             width="61.5"
             height="130.5"
             x="540.09375"
             y="111.61218" />
          <path
             style="fill:none;stroke:#000000;stroke-width:1px;stroke-linecap:butt;stroke-linejoin:miter;stroke-opacity:1"
             d="m 540.09375,156.61218 60,0"
             id="path2987"
             inkscape:connector-curvature="0" />
          <path
             style="fill:none;stroke:#000000;stroke-width:1px;stroke-linecap:butt;stroke-linejoin:miter;stroke-opacity:1"
             d="m 540.09375,200.11218 60,0"
             id="path2987-3"
             inkscape:connector-curvature="0" />
        </g>
        <path
           transform="matrix(1.5,0,0,1.5,64.43792,16.31888)"
           sodipodi:open="true"
           sodipodi:end="6.1078037"
           sodipodi:start="6.130137"
           d="m 173.95324,38.752377 a 4,4 0 0 1 -3.32137,4.559583 4,4 0 0 1 -4.57806,-3.295866 4,4 0 0 1 3.27026,-4.596387 4,4 0 0 1 4.61457,3.24454"
           sodipodi:ry="4"
           sodipodi:rx="4"
           sodipodi:cy="39.362183"
           sodipodi:cx="170"
           id="path3775-1"
           style="color:#000000;display:inline;overflow:visible;visibility:visible;opacity:0.80894309;fill:#000000;fill-opacity:1;stroke:#000000;stroke-width:0.83333331;stroke-linecap:square;stroke-linejoin:bevel;stroke-miterlimit:4;stroke-dasharray:none;stroke-dashoffset:0;stroke-opacity:1;marker:none;enable-background:accumulate"
           sodipodi:type="arc" />
        <g
           transform="matrix(0.7,0,0,0.7,84.524764,-82.25967)"
           id="g3726">
          <g
             style="font-style:normal;font-variant:normal;font-weight:normal;font-stretch:normal;letter-spacing:normal;word-spacing:normal;text-anchor:start;fill:none;stroke:#000000;stroke-width:1.42857146;stroke-linecap:butt;stroke-linejoin:miter;stroke-miterlimit:10.43299961;stroke-dasharray:none;stroke-dashoffset:0;stroke-opacity:1"
             id="g3728"
             transform="matrix(1.0629921,0,0,-1.0629921,-186.02362,789.27165)"
             xml:space="preserve"
             stroke-miterlimit="10.433"
             font-style="normal"
             font-variant="normal"
             font-weight="normal"
             font-stretch="normal"
             font-size-adjust="none"
             letter-spacing="normal"
             word-spacing="normal"><path
               style="fill:#000000;stroke-width:0"
               inkscape:connector-curvature="0"
               d="m 466.77,414.34 0.06,0.06 0.07,0.06 0.08,0.06 0.07,0.07 0.09,0.08 0.09,0.07 0.09,0.08 0.09,0.08 0.1,0.08 0.1,0.08 0.21,0.17 0.21,0.18 0.22,0.18 0.21,0.17 0.22,0.18 0.2,0.17 0.1,0.08 0.1,0.08 0.1,0.08 0.09,0.07 0.08,0.08 0.09,0.07 0.08,0.06 0.07,0.07 0.07,0.05 0.06,0.06 c 2.47,2.28 4.83,4.47 4.83,8.09 0,4.75 -4,7.83 -8.98,7.83 -4.78,0 -7.94,-3.64 -7.94,-7.19 0,-1.95 1.56,-2.23 2.12,-2.23 0.83,0 2.07,0.59 2.07,2.11 0,2.08 -1.99,2.08 -2.47,2.08 1.15,2.92 3.83,3.9 5.78,3.9 3.72,0 5.62,-3.14 5.62,-6.5 0,-4.14 -2.9,-7.17 -7.61,-12 l -5.03,-5.19 c -0.48,-0.43 -0.48,-0.51 -0.48,-1.51 l 15.76,0 1.16,7.14 -1.23,0 c -0.13,-0.8 -0.46,-2.8 -0.93,-3.55 -0.23,-0.33 -3.26,-0.33 -3.9,-0.33 l -7.11,0 z"
               id="path3730" /><path
               style="fill:#000000;stroke-width:0"
               inkscape:connector-curvature="0"
               d="m 496.62,422.12 -0.08,-0.02 -0.08,-0.02 -0.07,-0.03 -0.08,-0.03 -0.07,-0.02 -0.07,-0.03 -0.07,-0.03 -0.06,-0.04 -0.06,-0.03 -0.06,-0.03 -0.06,-0.04 -0.06,-0.03 -0.05,-0.04 -0.05,-0.04 -0.1,-0.08 -0.09,-0.08 -0.09,-0.08 -0.08,-0.08 -0.07,-0.09 -0.06,-0.09 -0.06,-0.08 -0.05,-0.09 -0.05,-0.09 -0.04,-0.08 -0.04,-0.09 -0.03,-0.08 -0.03,-0.08 -0.02,-0.08 -0.03,-0.08 -0.01,-0.07 -0.02,-0.07 -0.01,-0.06 -0.01,-0.06 -0.01,-0.05 0,-0.05 0,-0.04 -0.01,-0.03 0,-0.03 0,-0.02 c 0,-0.87 0.67,-1.48 1.55,-1.48 0.87,0 2.23,0.69 2.23,2.39 0,2.28 -2.51,2.92 -3.98,2.92 -1.88,0 -3.39,-1.31 -4.31,-2.87 -0.88,2.11 -2.96,2.87 -4.6,2.87 -4.34,0 -6.76,-4.98 -6.76,-6.11 0,-0.36 0.26,-0.51 0.59,-0.51 0.47,0 0.56,0.2 0.67,0.67 0.93,2.92 3.32,4.83 5.39,4.83 1.55,0 2.32,-1.11 2.32,-2.55 0,-0.8 -0.49,-2.64 -0.8,-3.91 -0.28,-1.15 -1.16,-4.7 -1.36,-5.46 -0.56,-2.16 -2,-3.83 -3.78,-3.83 -0.17,0 -1.2,0 -2.05,0.56 1.85,0.44 1.85,2.11 1.85,2.16 0,0.9 -0.72,1.47 -1.6,1.47 -1.08,0 -2.23,-0.93 -2.23,-2.44 0,-1.83 1.95,-2.88 3.98,-2.88 2.11,0 3.6,1.61 4.31,2.88 0.88,-1.96 2.71,-2.88 4.63,-2.88 4.34,0 6.73,5 6.73,6.11 0,0.41 -0.31,0.52 -0.59,0.52 -0.48,0 -0.56,-0.28 -0.67,-0.67 -0.81,-2.68 -3.08,-4.83 -5.39,-4.83 -1.31,0 -2.28,0.87 -2.28,2.54 0,0.8 0.25,1.72 0.79,3.96 0.28,1.2 1.16,4.7 1.36,5.47 0.57,2.07 1.96,3.78 3.75,3.78 0.21,0 1.24,0 2.08,-0.55 z"
               id="path3732" /><path
               style="fill:#000000;stroke-width:0"
               inkscape:connector-curvature="0"
               d="m 516.55,406.26 -1.09,0 c -0.06,-0.42 -0.36,-2.39 -0.81,-2.72 -0.21,-0.17 -2.63,-0.17 -3.04,-0.17 l -5.57,0 3.81,3.09 c 1.01,0.81 3.67,2.72 4.59,3.61 0.89,0.89 2.11,2.41 2.11,4.53 0,3.72 -3.36,5.89 -7.36,5.89 -3.84,0 -6.53,-2.53 -6.53,-5.33 0,-1.51 1.28,-1.7 1.61,-1.7 0.75,0 1.61,0.55 1.61,1.61 0,0.66 -0.38,1.61 -1.69,1.61 0.67,1.52 2.5,2.66 4.55,2.66 3.14,0 4.79,-2.33 4.79,-4.74 0,-2.12 -1.38,-4.3 -3.48,-6.2 l -7.06,-6.47 c -0.3,-0.3 -0.33,-0.33 -0.33,-1.25 l 12.97,0 z"
               id="path3734" /></g>        </g>
        <g
           transform="matrix(0.7,0,0,0.7,98.827913,-121.9849)"
           id="g4617">
          <g
             style="font-style:normal;font-variant:normal;font-weight:normal;font-stretch:normal;letter-spacing:normal;word-spacing:normal;text-anchor:start;fill:none;stroke:#000000;stroke-width:1.42857146;stroke-linecap:butt;stroke-linejoin:miter;stroke-miterlimit:10.43299961;stroke-dasharray:none;stroke-dashoffset:0;stroke-opacity:1"
             id="g4619"
             transform="matrix(1.0629921,0,0,-1.0629921,-186.02362,789.27165)"
             xml:space="preserve"
             stroke-miterlimit="10.433"
             font-style="normal"
             font-variant="normal"
             font-weight="normal"
             font-stretch="normal"
             font-size-adjust="none"
             letter-spacing="normal"
             word-spacing="normal"><path
               style="fill:#000000;stroke-width:0"
               inkscape:connector-curvature="0"
               d="m 466.77,414.34 0.06,0.06 0.07,0.06 0.08,0.06 0.07,0.07 0.09,0.08 0.09,0.07 0.09,0.08 0.09,0.08 0.1,0.08 0.1,0.08 0.21,0.17 0.21,0.18 0.22,0.18 0.21,0.17 0.22,0.18 0.2,0.17 0.1,0.08 0.1,0.08 0.1,0.08 0.09,0.07 0.08,0.08 0.09,0.07 0.08,0.06 0.07,0.07 0.07,0.05 0.06,0.06 c 2.47,2.28 4.83,4.47 4.83,8.09 0,4.75 -4,7.83 -8.98,7.83 -4.78,0 -7.94,-3.64 -7.94,-7.19 0,-1.95 1.56,-2.23 2.12,-2.23 0.83,0 2.07,0.59 2.07,2.11 0,2.08 -1.99,2.08 -2.47,2.08 1.15,2.92 3.83,3.9 5.78,3.9 3.72,0 5.62,-3.14 5.62,-6.5 0,-4.14 -2.9,-7.17 -7.61,-12 l -5.03,-5.19 c -0.48,-0.43 -0.48,-0.51 -0.48,-1.51 l 15.76,0 1.16,7.14 -1.23,0 c -0.13,-0.8 -0.46,-2.8 -0.93,-3.55 -0.23,-0.33 -3.26,-0.33 -3.9,-0.33 l -7.11,0 z"
               id="path4621" /></g>        </g>
      </g>
      <g
         transform="translate(53,67)"
         id="g5148">
        <g
           id="g5009-7-4"
           transform="translate(-131.14465,-60.5)">
          <rect
             style="color:#000000;display:inline;overflow:visible;visibility:visible;opacity:0.80894309;fill:none;stroke:#000000;stroke-width:1.25;stroke-linecap:square;stroke-linejoin:bevel;stroke-miterlimit:4;stroke-dasharray:none;stroke-dashoffset:0;stroke-opacity:1;marker:none;enable-background:accumulate"
             id="rect2985-9-7"
             width="61.5"
             height="130.5"
             x="540.09375"
             y="111.61218" />
          <path
             style="fill:none;stroke:#000000;stroke-width:1px;stroke-linecap:butt;stroke-linejoin:miter;stroke-opacity:1"
             d="m 540.09375,156.61218 60,0"
             id="path2987-2-6"
             inkscape:connector-curvature="0" />
          <path
             style="fill:none;stroke:#000000;stroke-width:1px;stroke-linecap:butt;stroke-linejoin:miter;stroke-opacity:1"
             d="m 540.09375,200.11218 60,0"
             id="path2987-3-0-5"
             inkscape:connector-curvature="0" />
        </g>
        <path
           transform="matrix(1.5,0,0,1.5,186.13702,17.31888)"
           sodipodi:open="true"
           sodipodi:end="6.1078037"
           sodipodi:start="6.130137"
           d="m 173.95324,38.752377 a 4,4 0 0 1 -3.32137,4.559583 4,4 0 0 1 -4.57806,-3.295866 4,4 0 0 1 3.27026,-4.596387 4,4 0 0 1 4.61457,3.24454"
           sodipodi:ry="4"
           sodipodi:rx="4"
           sodipodi:cy="39.362183"
           sodipodi:cx="170"
           id="path3775-5-0-6"
           style="color:#000000;display:inline;overflow:visible;visibility:visible;opacity:0.80894309;fill:#000000;fill-opacity:1;stroke:#000000;stroke-width:0.83333331;stroke-linecap:square;stroke-linejoin:bevel;stroke-miterlimit:4;stroke-dasharray:none;stroke-dashoffset:0;stroke-opacity:1;marker:none;enable-background:accumulate"
           sodipodi:type="arc" />
        <g
           id="g3962"
           transform="matrix(0.7,0,0,0.7,206.81337,-82.25967)">
          <g
             word-spacing="normal"
             letter-spacing="normal"
             font-size-adjust="none"
             font-stretch="normal"
             font-weight="normal"
             font-variant="normal"
             font-style="normal"
             stroke-miterlimit="10.433"
             xml:space="preserve"
             transform="matrix(1.0629921,0,0,-1.0629921,-186.02362,789.27165)"
             id="g3964"
             style="font-style:normal;font-variant:normal;font-weight:normal;font-stretch:normal;letter-spacing:normal;word-spacing:normal;text-anchor:start;fill:none;stroke:#000000;stroke-width:1.42857146;stroke-linecap:butt;stroke-linejoin:miter;stroke-miterlimit:10.43299961;stroke-dasharray:none;stroke-dashoffset:0;stroke-opacity:1"><path
               id="path3966"
               d="m 466.77,414.34 0.06,0.06 0.07,0.06 0.08,0.06 0.07,0.07 0.09,0.08 0.09,0.07 0.09,0.08 0.09,0.08 0.1,0.08 0.1,0.08 0.21,0.17 0.21,0.18 0.22,0.18 0.21,0.17 0.22,0.18 0.2,0.17 0.1,0.08 0.1,0.08 0.1,0.08 0.09,0.07 0.08,0.08 0.09,0.07 0.08,0.06 0.07,0.07 0.07,0.05 0.06,0.06 c 2.47,2.28 4.83,4.47 4.83,8.09 0,4.75 -4,7.83 -8.98,7.83 -4.78,0 -7.94,-3.64 -7.94,-7.19 0,-1.95 1.56,-2.23 2.12,-2.23 0.83,0 2.07,0.59 2.07,2.11 0,2.08 -1.99,2.08 -2.47,2.08 1.15,2.92 3.83,3.9 5.78,3.9 3.72,0 5.62,-3.14 5.62,-6.5 0,-4.14 -2.9,-7.17 -7.61,-12 l -5.03,-5.19 c -0.48,-0.43 -0.48,-0.51 -0.48,-1.51 l 15.76,0 1.16,7.14 -1.23,0 c -0.13,-0.8 -0.46,-2.8 -0.93,-3.55 -0.23,-0.33 -3.26,-0.33 -3.9,-0.33 l -7.11,0 z"
               inkscape:connector-curvature="0"
               style="fill:#000000;stroke-width:0" /><path
               id="path3968"
               d="m 496.62,422.12 -0.08,-0.02 -0.08,-0.02 -0.07,-0.03 -0.08,-0.03 -0.07,-0.02 -0.07,-0.03 -0.07,-0.03 -0.06,-0.04 -0.06,-0.03 -0.06,-0.03 -0.06,-0.04 -0.06,-0.03 -0.05,-0.04 -0.05,-0.04 -0.1,-0.08 -0.09,-0.08 -0.09,-0.08 -0.08,-0.08 -0.07,-0.09 -0.06,-0.09 -0.06,-0.08 -0.05,-0.09 -0.05,-0.09 -0.04,-0.08 -0.04,-0.09 -0.03,-0.08 -0.03,-0.08 -0.02,-0.08 -0.03,-0.08 -0.01,-0.07 -0.02,-0.07 -0.01,-0.06 -0.01,-0.06 -0.01,-0.05 0,-0.05 0,-0.04 -0.01,-0.03 0,-0.03 0,-0.02 c 0,-0.87 0.67,-1.48 1.55,-1.48 0.87,0 2.23,0.69 2.23,2.39 0,2.28 -2.51,2.92 -3.98,2.92 -1.88,0 -3.39,-1.31 -4.31,-2.87 -0.88,2.11 -2.96,2.87 -4.6,2.87 -4.34,0 -6.76,-4.98 -6.76,-6.11 0,-0.36 0.26,-0.51 0.59,-0.51 0.47,0 0.56,0.2 0.67,0.67 0.93,2.92 3.32,4.83 5.39,4.83 1.55,0 2.32,-1.11 2.32,-2.55 0,-0.8 -0.49,-2.64 -0.8,-3.91 -0.28,-1.15 -1.16,-4.7 -1.36,-5.46 -0.56,-2.16 -2,-3.83 -3.78,-3.83 -0.17,0 -1.2,0 -2.05,0.56 1.85,0.44 1.85,2.11 1.85,2.16 0,0.9 -0.72,1.47 -1.6,1.47 -1.08,0 -2.23,-0.93 -2.23,-2.44 0,-1.83 1.95,-2.88 3.98,-2.88 2.11,0 3.6,1.61 4.31,2.88 0.88,-1.96 2.71,-2.88 4.63,-2.88 4.34,0 6.73,5 6.73,6.11 0,0.41 -0.31,0.52 -0.59,0.52 -0.48,0 -0.56,-0.28 -0.67,-0.67 -0.81,-2.68 -3.08,-4.83 -5.39,-4.83 -1.31,0 -2.28,0.87 -2.28,2.54 0,0.8 0.25,1.72 0.79,3.96 0.28,1.2 1.16,4.7 1.36,5.47 0.57,2.07 1.96,3.78 3.75,3.78 0.21,0 1.24,0 2.08,-0.55 z"
               inkscape:connector-curvature="0"
               style="fill:#000000;stroke-width:0" /><path
               id="path3970"
               d="m 503.41,397.55 -0.02,-0.07 -0.02,-0.07 -0.01,-0.06 -0.02,-0.06 -0.02,-0.06 -0.02,-0.05 -0.01,-0.06 -0.02,-0.05 -0.02,-0.04 -0.02,-0.05 -0.03,-0.04 -0.02,-0.04 -0.03,-0.03 -0.03,-0.04 -0.03,-0.03 -0.03,-0.03 -0.04,-0.03 -0.04,-0.02 -0.05,-0.02 -0.05,-0.02 -0.05,-0.02 -0.06,-0.02 -0.06,-0.01 -0.03,-0.01 -0.04,-0.01 -0.03,0 -0.04,-0.01 -0.04,0 -0.04,-0.01 -0.04,0 -0.04,-0.01 -0.04,0 -0.05,0 -0.05,-0.01 -0.05,0 -0.05,0 -0.05,0 -0.05,0 -0.06,0 -0.06,0 -0.06,0 c -0.39,0 -0.57,0 -0.68,-0.18 -0.07,-0.12 -0.19,-0.51 -0.19,-0.59 0.03,-0.09 0.06,-0.42 0.48,-0.42 0.83,0 1.82,0.12 2.69,0.12 0.53,0 1.1,-0.03 1.63,-0.03 0.51,0 1.11,-0.09 1.61,-0.09 0.18,0 0.39,0 0.51,0.2 0.06,0.1 0.17,0.46 0.17,0.58 -0.07,0.41 -0.37,0.41 -0.89,0.41 -0.72,0 -1.48,0 -1.48,0.36 0,0.15 0.2,0.92 0.33,1.37 l 1.06,4.34 c 0.72,-1.06 1.83,-1.78 3.28,-1.78 l 0,0.99 c -2.23,0 -2.83,2.33 -2.83,2.56 0,0.14 0.06,0.33 0.1,0.45 l 1.34,5.27 c 0.14,0.51 0.14,0.56 0.67,1.16 0.95,1.07 2.39,2.03 3.8,2.03 1.42,0 2.34,-1.1 2.34,-2.93 0,-1.01 -0.59,-4.31 -1.75,-6.14 -1.01,-1.54 -2.42,-2.4 -3.67,-2.4 l 0,-0.99 c 3.94,0 7.95,4.11 7.95,8.38 0,3.09 -2.17,5.06 -4.79,5.06 -2.41,0 -4.28,-1.94 -4.44,-2.11 -0.53,1.75 -2.38,2.11 -3.25,2.11 -1.36,0 -2.08,-0.98 -2.47,-1.64 -0.72,-1.25 -1.08,-2.8 -1.08,-2.92 0,-0.33 0.28,-0.44 0.55,-0.44 0.47,0 0.5,0.2 0.66,0.69 0.62,2.47 1.32,3.33 2.26,3.33 1.06,0 1.06,-1.22 1.06,-1.52 0,-0.51 -0.03,-0.59 -0.07,-0.86 z"
               inkscape:connector-curvature="0"
               style="fill:#000000;stroke-width:0" /></g>        </g>
        <g
           id="g4816"
           transform="matrix(0.7,0,0,0.7,220.61106,-123.3253)">
          <g
             word-spacing="normal"
             letter-spacing="normal"
             font-size-adjust="none"
             font-stretch="normal"
             font-weight="normal"
             font-variant="normal"
             font-style="normal"
             stroke-miterlimit="10.433"
             xml:space="preserve"
             transform="matrix(1.0629921,0,0,-1.0629921,-186.02362,789.27165)"
             id="g4818"
             style="font-style:normal;font-variant:normal;font-weight:normal;font-stretch:normal;letter-spacing:normal;word-spacing:normal;text-anchor:start;fill:none;stroke:#000000;stroke-width:1.42857146;stroke-linecap:butt;stroke-linejoin:miter;stroke-miterlimit:10.43299961;stroke-dasharray:none;stroke-dashoffset:0;stroke-opacity:1"><path
               id="path4820"
               d="m 457.6,401.37 -0.03,-0.12 -0.03,-0.11 -0.03,-0.1 -0.03,-0.11 -0.02,-0.09 -0.03,-0.09 -0.03,-0.09 -0.03,-0.08 -0.03,-0.07 -0.03,-0.08 -0.03,-0.06 -0.04,-0.07 -0.04,-0.05 -0.04,-0.06 -0.04,-0.05 -0.05,-0.05 -0.05,-0.04 -0.05,-0.04 -0.06,-0.03 -0.07,-0.04 -0.06,-0.03 -0.08,-0.02 -0.08,-0.02 -0.08,-0.02 -0.1,-0.02 -0.09,-0.02 -0.11,-0.01 -0.05,0 -0.06,-0.01 -0.06,0 -0.06,0 -0.07,-0.01 -0.06,0 -0.07,0 -0.07,0 -0.07,0 -0.07,0 c -0.56,0 -1.03,0 -1.03,-0.77 0,-0.34 0.36,-0.55 0.54,-0.55 0.41,0 0.57,0.11 3.52,0.11 2.87,0 3.72,-0.11 3.98,-0.11 0.18,0 0.77,0 0.77,0.75 0,0.57 -0.56,0.57 -1.03,0.57 -1.92,0 -1.92,0.23 -1.92,0.59 0,0.28 0.71,3.11 1.92,7.78 0.51,-0.92 1.75,-2.36 3.9,-2.36 l 0,1.13 c -2.71,0 -3.36,3.11 -3.36,3.39 0,0.08 0.08,0.51 0.13,0.64 l 1.91,7.53 c 0.2,0.69 0.2,0.77 0.81,1.48 1.51,1.8 3.22,2.71 4.65,2.71 2,0 2.75,-1.96 2.75,-3.75 0,-1.47 -0.87,-5.74 -2.06,-8.1 -1.04,-2.15 -2.95,-3.9 -4.83,-3.9 l 0,-1.13 c 4.91,0 10,5.67 10,11.46 0,3.95 -2.54,6.54 -5.73,6.54 -2.39,0 -4.31,-1.64 -5.47,-2.83 -0.83,2.83 -3.51,2.83 -3.91,2.83 -1.43,0 -2.43,-0.92 -3.07,-2.15 -0.91,-1.8 -1.35,-3.83 -1.35,-3.96 0,-0.36 0.27,-0.51 0.6,-0.51 0.51,0 0.56,0.15 0.82,1.2 0.54,2.03 1.25,4.3 2.88,4.3 1,0 1.28,-0.91 1.28,-1.88 0,-0.39 -0.16,-1.34 -0.23,-1.67 z"
               inkscape:connector-curvature="0"
               style="fill:#000000;stroke-width:0" /></g>        </g>
      </g>
      <g
         transform="translate(53,67)"
         id="g5163">
        <g
           id="g5009-7"
           transform="translate(-0.84375,-60.5)">
          <rect
             style="color:#000000;display:inline;overflow:visible;visibility:visible;opacity:0.80894309;fill:none;stroke:#000000;stroke-width:1.25;stroke-linecap:square;stroke-linejoin:bevel;stroke-miterlimit:4;stroke-dasharray:none;stroke-dashoffset:0;stroke-opacity:1;marker:none;enable-background:accumulate"
             id="rect2985-9"
             width="61.5"
             height="130.5"
             x="540.09375"
             y="111.61218" />
          <path
             style="fill:none;stroke:#000000;stroke-width:1px;stroke-linecap:butt;stroke-linejoin:miter;stroke-opacity:1"
             d="m 540.09375,156.61218 60,0"
             id="path2987-2"
             inkscape:connector-curvature="0" />
          <path
             style="fill:none;stroke:#000000;stroke-width:1px;stroke-linecap:butt;stroke-linejoin:miter;stroke-opacity:1"
             d="m 540.09375,200.11218 60,0"
             id="path2987-3-0"
             inkscape:connector-curvature="0" />
        </g>
        <path
           transform="matrix(1.5,0,0,1.5,316.43792,17.31888)"
           sodipodi:open="true"
           sodipodi:end="6.1078037"
           sodipodi:start="6.130137"
           d="m 173.95324,38.752377 a 4,4 0 0 1 -3.32137,4.559583 4,4 0 0 1 -4.57806,-3.295866 4,4 0 0 1 3.27026,-4.596387 4,4 0 0 1 4.61457,3.24454"
           sodipodi:ry="4"
           sodipodi:rx="4"
           sodipodi:cy="39.362183"
           sodipodi:cx="170"
           id="path3775-5-0"
           style="color:#000000;display:inline;overflow:visible;visibility:visible;opacity:0.80894309;fill:#000000;fill-opacity:1;stroke:#000000;stroke-width:0.83333331;stroke-linecap:square;stroke-linejoin:bevel;stroke-miterlimit:4;stroke-dasharray:none;stroke-dashoffset:0;stroke-opacity:1;marker:none;enable-background:accumulate"
           sodipodi:type="arc" />
        <g
           transform="matrix(0.7,0,0,0.7,336.33157,-82.25967)"
           id="g4206">
          <g
             style="font-style:normal;font-variant:normal;font-weight:normal;font-stretch:normal;letter-spacing:normal;word-spacing:normal;text-anchor:start;fill:none;stroke:#000000;stroke-width:1.42857146;stroke-linecap:butt;stroke-linejoin:miter;stroke-miterlimit:10.43299961;stroke-dasharray:none;stroke-dashoffset:0;stroke-opacity:1"
             id="g4208"
             transform="matrix(1.0629921,0,0,-1.0629921,-186.02362,789.27165)"
             xml:space="preserve"
             stroke-miterlimit="10.433"
             font-style="normal"
             font-variant="normal"
             font-weight="normal"
             font-stretch="normal"
             font-size-adjust="none"
             letter-spacing="normal"
             word-spacing="normal"><path
               style="fill:#000000;stroke-width:0"
               inkscape:connector-curvature="0"
               d="m 466.77,414.34 0.06,0.06 0.07,0.06 0.08,0.06 0.07,0.07 0.09,0.08 0.09,0.07 0.09,0.08 0.09,0.08 0.1,0.08 0.1,0.08 0.21,0.17 0.21,0.18 0.22,0.18 0.21,0.17 0.22,0.18 0.2,0.17 0.1,0.08 0.1,0.08 0.1,0.08 0.09,0.07 0.08,0.08 0.09,0.07 0.08,0.06 0.07,0.07 0.07,0.05 0.06,0.06 c 2.47,2.28 4.83,4.47 4.83,8.09 0,4.75 -4,7.83 -8.98,7.83 -4.78,0 -7.94,-3.64 -7.94,-7.19 0,-1.95 1.56,-2.23 2.12,-2.23 0.83,0 2.07,0.59 2.07,2.11 0,2.08 -1.99,2.08 -2.47,2.08 1.15,2.92 3.83,3.9 5.78,3.9 3.72,0 5.62,-3.14 5.62,-6.5 0,-4.14 -2.9,-7.17 -7.61,-12 l -5.03,-5.19 c -0.48,-0.43 -0.48,-0.51 -0.48,-1.51 l 15.76,0 1.16,7.14 -1.23,0 c -0.13,-0.8 -0.46,-2.8 -0.93,-3.55 -0.23,-0.33 -3.26,-0.33 -3.9,-0.33 l -7.11,0 z"
               id="path4210" /><path
               style="fill:#000000;stroke-width:0"
               inkscape:connector-curvature="0"
               d="m 496.62,422.12 -0.08,-0.02 -0.08,-0.02 -0.07,-0.03 -0.08,-0.03 -0.07,-0.02 -0.07,-0.03 -0.07,-0.03 -0.06,-0.04 -0.06,-0.03 -0.06,-0.03 -0.06,-0.04 -0.06,-0.03 -0.05,-0.04 -0.05,-0.04 -0.1,-0.08 -0.09,-0.08 -0.09,-0.08 -0.08,-0.08 -0.07,-0.09 -0.06,-0.09 -0.06,-0.08 -0.05,-0.09 -0.05,-0.09 -0.04,-0.08 -0.04,-0.09 -0.03,-0.08 -0.03,-0.08 -0.02,-0.08 -0.03,-0.08 -0.01,-0.07 -0.02,-0.07 -0.01,-0.06 -0.01,-0.06 -0.01,-0.05 0,-0.05 0,-0.04 -0.01,-0.03 0,-0.03 0,-0.02 c 0,-0.87 0.67,-1.48 1.55,-1.48 0.87,0 2.23,0.69 2.23,2.39 0,2.28 -2.51,2.92 -3.98,2.92 -1.88,0 -3.39,-1.31 -4.31,-2.87 -0.88,2.11 -2.96,2.87 -4.6,2.87 -4.34,0 -6.76,-4.98 -6.76,-6.11 0,-0.36 0.26,-0.51 0.59,-0.51 0.47,0 0.56,0.2 0.67,0.67 0.93,2.92 3.32,4.83 5.39,4.83 1.55,0 2.32,-1.11 2.32,-2.55 0,-0.8 -0.49,-2.64 -0.8,-3.91 -0.28,-1.15 -1.16,-4.7 -1.36,-5.46 -0.56,-2.16 -2,-3.83 -3.78,-3.83 -0.17,0 -1.2,0 -2.05,0.56 1.85,0.44 1.85,2.11 1.85,2.16 0,0.9 -0.72,1.47 -1.6,1.47 -1.08,0 -2.23,-0.93 -2.23,-2.44 0,-1.83 1.95,-2.88 3.98,-2.88 2.11,0 3.6,1.61 4.31,2.88 0.88,-1.96 2.71,-2.88 4.63,-2.88 4.34,0 6.73,5 6.73,6.11 0,0.41 -0.31,0.52 -0.59,0.52 -0.48,0 -0.56,-0.28 -0.67,-0.67 -0.81,-2.68 -3.08,-4.83 -5.39,-4.83 -1.31,0 -2.28,0.87 -2.28,2.54 0,0.8 0.25,1.72 0.79,3.96 0.28,1.2 1.16,4.7 1.36,5.47 0.57,2.07 1.96,3.78 3.75,3.78 0.21,0 1.24,0 2.08,-0.55 z"
               id="path4212" /><path
               style="fill:#000000;stroke-width:0"
               inkscape:connector-curvature="0"
               d="m 509.25,411.47 0,0.11 -0.02,0.1 -0.01,0.1 -0.02,0.1 -0.02,0.09 -0.02,0.1 -0.02,0.09 -0.03,0.08 -0.06,0.17 -0.07,0.17 -0.07,0.15 -0.09,0.14 -0.09,0.14 -0.1,0.12 -0.1,0.12 -0.11,0.11 -0.12,0.11 -0.11,0.09 -0.13,0.09 -0.12,0.09 -0.13,0.07 -0.13,0.07 -0.14,0.07 -0.13,0.05 -0.14,0.06 -0.13,0.04 -0.14,0.04 -0.13,0.04 -0.14,0.03 -0.13,0.02 -0.13,0.03 -0.12,0.01 -0.13,0.02 -0.12,0 -0.11,0.01 -0.11,0 c -1.13,0 -1.91,-0.69 -2.44,-1.64 -0.75,-1.22 -1.11,-2.8 -1.11,-2.92 0,-0.33 0.28,-0.44 0.55,-0.44 0.47,0 0.5,0.2 0.66,0.69 0.59,2.37 1.31,3.33 2.26,3.33 1.06,0 1.06,-1.22 1.06,-1.52 0,-0.48 -0.29,-1.67 -0.5,-2.5 -0.22,-0.81 -0.51,-2.03 -0.65,-2.69 -0.21,-0.75 -0.39,-1.51 -0.6,-2.26 -0.22,-0.83 -0.57,-2.33 -0.57,-2.5 0,-0.66 0.51,-0.99 1.04,-0.99 0.55,0 1.05,0.36 1.28,0.8 0.07,0.19 0.33,1.23 0.49,1.83 l 0.65,2.67 c 0.21,0.78 0.33,1.31 0.5,2 0.27,1.02 1.32,2.59 2.43,3.7 0.59,0.57 1.87,1.46 3.48,1.46 1.91,0 1.91,-1.52 1.91,-2.08 0,-1.77 -1.29,-4.95 -1.82,-6.3 -0.18,-0.5 -0.39,-0.98 -0.39,-1.48 0,-1.52 1.36,-2.6 3,-2.6 3.02,0 4.5,3.94 4.5,4.6 0,0.04 -0.03,0.4 -0.56,0.4 -0.42,0 -0.44,-0.14 -0.62,-0.7 -0.47,-1.59 -1.71,-3.31 -3.22,-3.31 -0.56,0 -0.8,0.44 -0.8,1.08 0,0.59 0.2,1.09 0.47,1.71 0.45,1.18 1.8,4.54 1.8,6.21 0,2.44 -1.86,3.45 -4.13,3.45 -1.48,0 -3.39,-0.47 -5.3,-2.83 z"
               id="path4214" /></g>        </g>
        <g
           transform="matrix(0.7,0,0,0.7,350.54065,-122.28998)"
           id="g5015">
          <g
             style="font-style:normal;font-variant:normal;font-weight:normal;font-stretch:normal;letter-spacing:normal;word-spacing:normal;text-anchor:start;fill:none;stroke:#000000;stroke-width:1.42857146;stroke-linecap:butt;stroke-linejoin:miter;stroke-miterlimit:10.43299961;stroke-dasharray:none;stroke-dashoffset:0;stroke-opacity:1"
             id="g5017"
             transform="matrix(1.0629921,0,0,-1.0629921,-186.02362,789.27165)"
             xml:space="preserve"
             stroke-miterlimit="10.433"
             font-style="normal"
             font-variant="normal"
             font-weight="normal"
             font-stretch="normal"
             font-size-adjust="none"
             letter-spacing="normal"
             word-spacing="normal"><path
               style="fill:#000000;stroke-width:0"
               inkscape:connector-curvature="0"
               d="m 463.5,412.75 0.02,0.05 0.01,0.07 0.01,0.07 0.02,0.07 0.01,0.07 0.02,0.09 0.02,0.08 0.02,0.09 0.02,0.08 0.03,0.1 0.02,0.09 0.02,0.1 0.05,0.19 0.05,0.2 0.04,0.19 0.05,0.2 0.03,0.09 0.02,0.1 0.02,0.09 0.02,0.09 0.02,0.09 0.02,0.08 0.02,0.08 0.02,0.08 0.01,0.07 0.02,0.07 0.01,0.06 0.01,0.06 c 0.56,2.16 0.56,2.2 1.48,3.51 1.32,1.96 3.19,3.71 5.86,3.71 1.44,0 2.28,-0.83 2.28,-2.71 0,-2.2 -1.68,-6.75 -2.43,-8.7 -0.52,-1.31 -0.52,-1.55 -0.52,-2.08 0,-2.26 1.88,-3.39 3.58,-3.39 3.92,0 5.55,5.6 5.55,6.11 0,0.41 -0.32,0.52 -0.6,0.52 -0.48,0 -0.56,-0.28 -0.67,-0.67 -0.97,-3.27 -2.64,-4.83 -4.16,-4.83 -0.64,0 -0.95,0.39 -0.95,1.31 0,0.92 0.31,1.8 0.72,2.8 0.59,1.51 2.34,6.09 2.34,8.33 0,3 -2.06,4.43 -4.93,4.43 -3.24,0 -5.32,-1.95 -6.47,-3.47 -0.28,2.19 -2.03,3.47 -4.07,3.47 -1.43,0 -2.43,-0.92 -3.07,-2.15 -0.96,-1.88 -1.35,-3.88 -1.35,-3.96 0,-0.36 0.27,-0.51 0.6,-0.51 0.51,0 0.56,0.15 0.82,1.2 0.49,1.95 1.21,4.3 2.88,4.3 1.05,0 1.28,-1 1.28,-1.88 0,-0.72 -0.2,-1.47 -0.51,-2.78 -0.08,-0.33 -0.69,-2.67 -0.85,-3.23 l -1.47,-5.99 c -0.15,-0.59 -0.4,-1.59 -0.4,-1.75 0,-0.92 0.76,-1.25 1.28,-1.25 0.72,0 1.31,0.49 1.59,0.97 0.13,0.24 0.44,1.6 0.64,2.42 z"
               id="path5019" /></g>        </g>
      </g>
      <g
         transform="translate(-120,-199)"
         id="g5576">
        <rect
           y="320.33224"
           x="205.77724"
           height="44.887184"
           width="117.44554"
           id="rect4230-6"
           style="color:#000000;display:inline;overflow:visible;visibility:visible;opacity:0.80894309;fill:none;stroke:#000000;stroke-width:1.36281371;stroke-linecap:square;stroke-linejoin:bevel;stroke-miterlimit:4;stroke-dasharray:none;stroke-dashoffset:0;stroke-opacity:1;marker:none;enable-background:accumulate" />
        <path
           inkscape:connector-curvature="0"
           id="path4232-7"
           d="m 282.44272,318.82353 c 0,44.27954 0,45.86095 0,45.86095"
           style="fill:none;stroke:#000000;stroke-width:1px;stroke-linecap:butt;stroke-linejoin:miter;stroke-opacity:1" />
        <text
           xml:space="preserve"
           style="font-style:italic;font-variant:normal;font-weight:normal;font-stretch:normal;font-size:30px;line-height:125%;font-family:'Nimbus Roman No9 L';-inkscape-font-specification:'Nimbus Roman No9 L, Italic';text-align:start;letter-spacing:0px;word-spacing:0px;writing-mode:lr-tb;text-anchor:start;fill:#000000;fill-opacity:1;stroke:none;stroke-width:1px;stroke-linecap:butt;stroke-linejoin:miter;stroke-opacity:1"
           x="226"
           y="352.36218"
           id="text5541"
           sodipodi:linespacing="125%"><tspan
             sodipodi:role="line"
             id="tspan5547"
             x="226"
             y="352.36218">list</tspan></text>
      </g>
      <text
         sodipodi:linespacing="125%"
         id="text5588"
         y="215.36218"
         x="115"
         style="font-style:italic;font-variant:normal;font-weight:normal;font-stretch:normal;font-size:30px;line-height:125%;font-family:'Nimbus Roman No9 L';-inkscape-font-specification:'Nimbus Roman No9 L, Italic';text-align:start;letter-spacing:0px;word-spacing:0px;writing-mode:lr-tb;text-anchor:start;fill:#000000;fill-opacity:1;stroke:none;stroke-width:1px;stroke-linecap:butt;stroke-linejoin:miter;stroke-opacity:1"
         xml:space="preserve"><tspan
           y="215.36218"
           x="115"
           id="tspan5590"
           sodipodi:role="line">factor</tspan></text>
      <rect
         y="63.614723"
         x="65.252541"
         height="220.49492"
         width="634.49493"
         id="rect5670"
         style="fill:none;fill-opacity:1;stroke:#000000;stroke-width:1.25;stroke-miterlimit:4;stroke-dasharray:none;stroke-dashoffset:0;stroke-opacity:1" />
      <text
         sodipodi:linespacing="125%"
         id="text5677"
         y="55.362183"
         x="69"
         style="font-style:italic;font-variant:normal;font-weight:normal;font-stretch:normal;font-size:30px;line-height:125%;font-family:'Nimbus Roman No9 L';-inkscape-font-specification:'Nimbus Roman No9 L, Italic';text-align:start;letter-spacing:0px;word-spacing:0px;writing-mode:lr-tb;text-anchor:start;fill:#000000;fill-opacity:1;stroke:none;stroke-width:1px;stroke-linecap:butt;stroke-linejoin:miter;stroke-opacity:1"
         xml:space="preserve"><tspan
           y="55.362183"
           x="69"
           id="tspan5681"
           sodipodi:role="line">rrf:</tspan></text>
      <text
         sodipodi:linespacing="125%"
         id="text5757"
         y="114.36218"
         x="228"
         style="font-style:italic;font-variant:normal;font-weight:normal;font-stretch:normal;font-size:30px;line-height:125%;font-family:'Nimbus Roman No9 L';-inkscape-font-specification:'Nimbus Roman No9 L, Italic';text-align:start;letter-spacing:0px;word-spacing:0px;writing-mode:lr-tb;text-anchor:start;fill:#000000;fill-opacity:1;stroke:none;stroke-width:1px;stroke-linecap:butt;stroke-linejoin:miter;stroke-opacity:1"
         xml:space="preserve"><tspan
           id="tspan5761"
           sodipodi:role="line"
           x="228"
           y="114.36218">node:</tspan></text>
    </g>
  </g>
  <g
     inkscape:groupmode="layer"
     id="layer2"
     inkscape:label="Pieces"
     style="display:none">
    <g
       style="display:inline"
       id="g5009-2"
       transform="translate(-24.84375,285.5)">
      <rect
         style="color:#000000;display:inline;overflow:visible;visibility:visible;opacity:0.80894309;fill:none;stroke:#000000;stroke-width:1.25;stroke-linecap:square;stroke-linejoin:bevel;stroke-miterlimit:4;stroke-dasharray:none;stroke-dashoffset:0;stroke-opacity:1;marker:none;enable-background:accumulate"
         id="rect2985-6"
         width="61.5"
         height="130.5"
         x="540.09375"
         y="111.61218" />
      <path
         style="fill:none;stroke:#000000;stroke-width:1px;stroke-linecap:butt;stroke-linejoin:miter;stroke-opacity:1"
         d="m 540.09375,156.61218 60,0"
         id="path2987-1"
         inkscape:connector-curvature="0" />
      <path
         style="fill:none;stroke:#000000;stroke-width:1px;stroke-linecap:butt;stroke-linejoin:miter;stroke-opacity:1"
         d="m 540.09375,200.11218 60,0"
         id="path2987-3-8"
         inkscape:connector-curvature="0" />
    </g>
    <g
       style="display:inline"
       transform="translate(-39.655826,140.24997)"
       id="g4889-7">
      <path
         sodipodi:type="arc"
         style="color:#000000;display:inline;overflow:visible;visibility:visible;opacity:0.80894309;fill:#000000;fill-opacity:1;stroke:#000000;stroke-width:0.83333331;stroke-linecap:square;stroke-linejoin:bevel;stroke-miterlimit:4;stroke-dasharray:none;stroke-dashoffset:0;stroke-opacity:1;marker:none;enable-background:accumulate"
         id="path3775-5"
         sodipodi:cx="170"
         sodipodi:cy="39.362183"
         sodipodi:rx="4"
         sodipodi:ry="4"
         d="m 173.95324,38.752377 a 4,4 0 0 1 -3.32137,4.559583 4,4 0 0 1 -4.57806,-3.295866 4,4 0 0 1 3.27026,-4.596387 4,4 0 0 1 4.61457,3.24454"
         sodipodi:start="6.130137"
         sodipodi:end="6.1078037"
         sodipodi:open="true"
         transform="matrix(1.5,0,0,1.5,-86.90625,184.06891)" />
      <path
         style="fill:none;stroke:#000000;stroke-width:1px;stroke-linecap:butt;stroke-linejoin:miter;stroke-opacity:1;marker-end:url(#Arrow1Mend)"
         d="m 168.09375,243.11218 56.5,0"
         id="path3777-9"
         inkscape:connector-curvature="0"
         sodipodi:nodetypes="cc" />
    </g>
    <g
       style="display:inline"
       transform="translate(-166.5,146)"
       id="g3272">
      <g
         style="font-style:normal;font-variant:normal;font-weight:normal;font-stretch:normal;letter-spacing:normal;word-spacing:normal;text-anchor:start;fill:none;stroke:#000000;stroke-linecap:butt;stroke-linejoin:miter;stroke-miterlimit:10.43299961;stroke-dasharray:none;stroke-dashoffset:0;stroke-opacity:1"
         id="g3274"
         transform="matrix(1.0629921,0,0,-1.0629921,-186.02362,789.27165)"
         xml:space="preserve"
         stroke-miterlimit="10.433"
         font-style="normal"
         font-variant="normal"
         font-weight="normal"
         font-stretch="normal"
         font-size-adjust="none"
         letter-spacing="normal"
         word-spacing="normal"><path
           style="fill:#000000;stroke-width:0"
           inkscape:connector-curvature="0"
           d="m 473.11,412.54 -1.18,0 c -0.1,-0.76 -0.46,-2.83 -0.91,-3.17 -0.27,-0.2 -2.95,-0.2 -3.44,-0.2 l -6.42,0 c 3.66,3.23 4.88,4.2 6.97,5.84 2.58,2.06 4.98,4.22 4.98,7.53 0,4.22 -3.68,6.8 -8.15,6.8 -4.32,0 -7.25,-3.03 -7.25,-6.23 0,-1.79 1.5,-1.96 1.86,-1.96 0.82,0 1.84,0.6 1.84,1.85 0,0.62 -0.25,1.84 -2.06,1.84 1.08,2.47 3.45,3.23 5.09,3.23 3.49,0 5.3,-2.7 5.3,-5.53 0,-3.03 -2.16,-5.43 -3.28,-6.68 l -8.39,-8.3 c -0.36,-0.31 -0.36,-0.39 -0.36,-1.36 l 14.36,0 z"
           id="path3276" /><path
           style="fill:#000000;stroke-width:0"
           inkscape:connector-curvature="0"
           d="m 483.99,409.89 -0.04,-0.11 -0.04,-0.12 -0.04,-0.12 -0.05,-0.12 -0.05,-0.13 -0.06,-0.12 -0.06,-0.13 -0.07,-0.13 -0.07,-0.12 -0.08,-0.13 -0.08,-0.13 -0.08,-0.13 -0.09,-0.12 -0.09,-0.13 -0.1,-0.12 -0.1,-0.11 -0.11,-0.12 -0.11,-0.11 -0.11,-0.1 -0.12,-0.11 -0.12,-0.09 -0.13,-0.09 -0.13,-0.09 -0.13,-0.07 -0.14,-0.07 -0.14,-0.06 -0.14,-0.06 -0.15,-0.04 -0.16,-0.04 -0.15,-0.02 -0.16,-0.02 -0.17,-0.01 c -0.11,0 -1.15,0 -1.89,0.49 1.44,0.45 1.53,1.72 1.53,1.92 0,0.77 -0.59,1.3 -1.39,1.3 -0.97,0 -1.98,-0.85 -1.98,-2.14 0,-1.74 1.95,-2.53 3.65,-2.53 1.61,0 3.04,1 3.91,2.46 0.83,-1.84 2.75,-2.46 4.14,-2.46 4.02,0 6.14,4.34 6.14,5.32 0,0.46 -0.45,0.46 -0.56,0.46 -0.48,0 -0.52,-0.18 -0.66,-0.6 -0.73,-2.4 -2.82,-4.22 -4.78,-4.22 -1.39,0 -2.12,0.94 -2.12,2.27 0,0.91 0.84,4.08 1.81,7.95 0.7,2.67 2.27,3.55 3.42,3.55 0.06,0 1.14,0 1.88,-0.48 -1.11,-0.32 -1.53,-1.3 -1.53,-1.93 0,-0.76 0.59,-1.28 1.39,-1.28 0.81,0 1.95,0.66 1.95,2.13 0,1.95 -2.24,2.53 -3.63,2.53 -1.73,0 -3.14,-1.14 -3.9,-2.47 -0.63,1.44 -2.22,2.47 -4.17,2.47 -3.91,0 -6.14,-4.28 -6.14,-5.33 0,-0.45 0.5,-0.45 0.59,-0.45 0.45,0 0.48,0.14 0.67,0.59 0.86,2.72 3.06,4.22 4.77,4.22 1.15,0 2.09,-0.63 2.09,-2.3 0,-0.7 -0.42,-2.43 -0.73,-3.62 z"
           id="path3278" /><path
           style="fill:#000000;stroke-width:0"
           inkscape:connector-curvature="0"
           d="m 507.8,417 0,0.04 0,0.03 0,0.03 0,0.04 0,0.03 0,0.03 0,0.02 0,0.03 -0.01,0.03 0,0.02 0,0.03 0,0.02 0,0.02 -0.01,0.03 0,0.02 0,0.02 -0.01,0.02 0,0.02 -0.01,0.03 -0.01,0.03 -0.02,0.03 -0.01,0.03 -0.02,0.02 -0.02,0.02 -0.02,0.02 -0.03,0.02 -0.02,0.01 -0.03,0.01 -0.03,0.01 -0.04,0.01 -0.04,0.01 -0.04,0.01 -0.02,0 -0.02,0 -0.03,0 -0.02,0.01 -0.03,0 -0.02,0 -0.03,0 -0.03,0 -0.03,0 -0.03,0 -0.03,0 -0.03,0 -0.03,0 -0.04,0 -0.03,0 -0.04,0 -0.04,0 -0.04,0 c -1.76,-1.59 -4.53,-1.59 -5.03,-1.59 l -0.42,0 0,-1.09 0.42,0 c 0.58,0 2.19,0.06 3.64,0.68 l 0,-12.45 c 0,-0.76 0,-1.05 -2.64,-1.05 l -1.25,0 0,-1.09 c 1.38,0.09 3.6,0.09 5.03,0.09 1.46,0 3.68,0 5.04,-0.09 l 0,1.09 -1.24,0 c -2.64,0 -2.64,0.29 -2.64,1.05 z"
           id="path3280" /></g>    </g>
    <rect
       y="420.36218"
       x="344"
       height="45"
       width="98.55835"
       id="rect4230"
       style="color:#000000;display:inline;overflow:visible;visibility:visible;opacity:0.80894309;fill:none;stroke:#000000;stroke-width:1.25;stroke-linecap:square;stroke-linejoin:bevel;stroke-miterlimit:4;stroke-dasharray:none;stroke-dashoffset:0;stroke-opacity:1;marker:none;enable-background:accumulate" />
    <path
       inkscape:connector-curvature="0"
       id="path4232"
       d="m 401.72189,418.90989 c 0,44.27954 0,45.86095 0,45.86095"
       style="fill:none;stroke:#000000;stroke-width:1px;stroke-linecap:butt;stroke-linejoin:miter;stroke-opacity:1" />
    <g
       id="g5281"
       transform="matrix(0.7,0,0,0.7,149.76043,202.92102)">
      <g
         word-spacing="normal"
         letter-spacing="normal"
         font-size-adjust="none"
         font-stretch="normal"
         font-weight="normal"
         font-variant="normal"
         font-style="normal"
         stroke-miterlimit="10.433"
         xml:space="preserve"
         transform="matrix(1.0629921,0,0,-1.0629921,-186.02362,789.27165)"
         id="g5283"
         style="font-style:normal;font-variant:normal;font-weight:normal;font-stretch:normal;letter-spacing:normal;word-spacing:normal;text-anchor:start;fill:none;stroke:#000000;stroke-width:1.42857146;stroke-linecap:butt;stroke-linejoin:miter;stroke-miterlimit:10.43299961;stroke-dasharray:none;stroke-dashoffset:0;stroke-opacity:1"><path
           id="path5285"
           d="m 468.13,419.12 4.14,0 c 3.28,0 3.44,-0.64 3.44,-1.8 0,-0.28 0,-0.67 -0.28,-1.71 -0.05,-0.16 -0.08,-0.47 -0.08,-0.6 0,-0.03 0,-0.56 0.59,-0.56 0.49,0 0.6,0.41 0.72,0.92 l 2.11,8.53 c 0.05,0.1 0.16,0.61 0.16,0.64 0,0.17 -0.11,0.57 -0.63,0.57 -0.48,0 -0.56,-0.36 -0.69,-0.85 -0.79,-3.11 -1.72,-3.83 -5.26,-3.83 l -3.86,0 2.5,10.07 c 0.36,1.43 0.4,1.51 2.05,1.51 l 5.85,0 c 4.75,0 6.11,-1 6.11,-4.44 0,-0.82 -0.2,-1.87 -0.2,-2.62 0,-0.49 0.28,-0.69 0.59,-0.69 0.57,0 0.6,0.36 0.68,1.05 l 0.72,6.78 c 0.04,0.2 0.04,0.47 0.04,0.67 0,0.56 -0.48,0.56 -1.2,0.56 l -20.45,0 c -0.72,0 -1.24,0 -1.24,-0.71 0,-0.6 0.47,-0.6 1.16,-0.6 0.28,0 0.83,0 1.51,-0.08 0.83,-0.09 0.96,-0.17 0.96,-0.56 0,-0.2 -0.05,-0.36 -0.16,-0.8 l -5.31,-21.21 c -0.36,-1.52 -0.44,-1.85 -3.39,-1.85 -0.75,0 -1.24,0 -1.24,-0.75 0,-0.15 0.13,-0.56 0.64,-0.56 0.85,0 1.8,0.12 2.68,0.12 l 5.5,0 c 0.76,-0.04 2.2,-0.12 2.95,-0.12 0.28,0 0.84,0 0.84,0.76 0,0.55 -0.48,0.55 -1.31,0.55 -0.84,0 -1.16,0 -2.08,0.08 -1.08,0.12 -1.2,0.25 -1.2,0.72 0,0.05 0,0.28 0.15,0.87 z"
           inkscape:connector-curvature="0"
           style="fill:#000000;stroke-width:0" /></g>    </g>
    <g
       style="display:inline"
       id="g5281-5"
       transform="matrix(0.7,0,0,0.7,387.48126,302.83466)">
      <g
         word-spacing="normal"
         letter-spacing="normal"
         font-size-adjust="none"
         font-stretch="normal"
         font-weight="normal"
         font-variant="normal"
         font-style="normal"
         stroke-miterlimit="10.433"
         xml:space="preserve"
         transform="matrix(1.0629921,0,0,-1.0629921,-186.02362,789.27165)"
         id="g5283-3"
         style="font-style:normal;font-variant:normal;font-weight:normal;font-stretch:normal;letter-spacing:normal;word-spacing:normal;text-anchor:start;fill:none;stroke:#000000;stroke-width:1.42857146;stroke-linecap:butt;stroke-linejoin:miter;stroke-miterlimit:10.43299961;stroke-dasharray:none;stroke-dashoffset:0;stroke-opacity:1"><path
           id="path5285-5"
           d="m 468.13,419.12 4.14,0 c 3.28,0 3.44,-0.64 3.44,-1.8 0,-0.28 0,-0.67 -0.28,-1.71 -0.05,-0.16 -0.08,-0.47 -0.08,-0.6 0,-0.03 0,-0.56 0.59,-0.56 0.49,0 0.6,0.41 0.72,0.92 l 2.11,8.53 c 0.05,0.1 0.16,0.61 0.16,0.64 0,0.17 -0.11,0.57 -0.63,0.57 -0.48,0 -0.56,-0.36 -0.69,-0.85 -0.79,-3.11 -1.72,-3.83 -5.26,-3.83 l -3.86,0 2.5,10.07 c 0.36,1.43 0.4,1.51 2.05,1.51 l 5.85,0 c 4.75,0 6.11,-1 6.11,-4.44 0,-0.82 -0.2,-1.87 -0.2,-2.62 0,-0.49 0.28,-0.69 0.59,-0.69 0.57,0 0.6,0.36 0.68,1.05 l 0.72,6.78 c 0.04,0.2 0.04,0.47 0.04,0.67 0,0.56 -0.48,0.56 -1.2,0.56 l -20.45,0 c -0.72,0 -1.24,0 -1.24,-0.71 0,-0.6 0.47,-0.6 1.16,-0.6 0.28,0 0.83,0 1.51,-0.08 0.83,-0.09 0.96,-0.17 0.96,-0.56 0,-0.2 -0.05,-0.36 -0.16,-0.8 l -5.31,-21.21 c -0.36,-1.52 -0.44,-1.85 -3.39,-1.85 -0.75,0 -1.24,0 -1.24,-0.75 0,-0.15 0.13,-0.56 0.64,-0.56 0.85,0 1.8,0.12 2.68,0.12 l 5.5,0 c 0.76,-0.04 2.2,-0.12 2.95,-0.12 0.28,0 0.84,0 0.84,0.76 0,0.55 -0.48,0.55 -1.31,0.55 -0.84,0 -1.16,0 -2.08,0.08 -1.08,0.12 -1.2,0.25 -1.2,0.72 0,0.05 0,0.28 0.15,0.87 z"
           inkscape:connector-curvature="0"
           style="fill:#000000;stroke-width:0" /></g>    </g>
  </g>
</svg>
